[
  {
    "Name": "Bucharest"
  },
  {
    "Name": "Pitesti"
  },
  {
    "Name": "Ploiesti"
  },
  {
    "Name": "Iasi"
  },
  {
    "Name": "Galati"
  },
  {
    "Name": "Vaslui"
  },
  {
    "Name": "Buzau"
  },
  {
    "Name": "Suceava"
  }
]